^E:\WPI\SEMESTER1\MISCELLANEOUS\DEVELOPMENTRIG\CORAL\STDAFX.CPP
E:\WPI\SEMESTER1\MISCELLANEOUS\DEVELOPMENTRIG\CORAL\X64\DEBUG\CORAL.PCH
E:\WPI\SEMESTER1\MISCELLANEOUS\DEVELOPMENTRIG\CORAL\X64\DEBUG\VC120.PDB
E:\WPI\SEMESTER1\MISCELLANEOUS\DEVELOPMENTRIG\CORAL\X64\DEBUG\VC120.IDB
E:\WPI\SEMESTER1\MISCELLANEOUS\DEVELOPMENTRIG\CORAL\X64\DEBUG\STDAFX.OBJ
^E:\WPI\SEMESTER1\MISCELLANEOUS\DEVELOPMENTRIG\CORAL\GROUPS.CPP|E:\WPI\SEMESTER1\MISCELLANEOUS\DEVELOPMENTRIG\CORAL\GROUPSCALE.CPP|E:\WPI\SEMESTER1\MISCELLANEOUS\DEVELOPMENTRIG\CORAL\MAIN.CPP|E:\WPI\SEMESTER1\MISCELLANEOUS\DEVELOPMENTRIG\CORAL\MUZAMMIL.CPP
E:\WPI\SEMESTER1\MISCELLANEOUS\DEVELOPMENTRIG\CORAL\X64\DEBUG\VC120.PDB
E:\WPI\SEMESTER1\MISCELLANEOUS\DEVELOPMENTRIG\CORAL\X64\DEBUG\VC120.IDB
E:\WPI\SEMESTER1\MISCELLANEOUS\DEVELOPMENTRIG\CORAL\X64\DEBUG\GROUPS.OBJ
E:\WPI\SEMESTER1\MISCELLANEOUS\DEVELOPMENTRIG\CORAL\X64\DEBUG\GROUPSCALE.OBJ
E:\WPI\SEMESTER1\MISCELLANEOUS\DEVELOPMENTRIG\CORAL\X64\DEBUG\MAIN.OBJ
E:\WPI\SEMESTER1\MISCELLANEOUS\DEVELOPMENTRIG\CORAL\X64\DEBUG\MUZAMMIL.OBJ
^E:\WPI\SEMESTER1\MISCELLANEOUS\DEVELOPMENTRIG\CORAL\GROUPS.CPP
E:\WPI\SEMESTER1\MISCELLANEOUS\DEVELOPMENTRIG\CORAL\X64\DEBUG\VC120.PDB
E:\WPI\SEMESTER1\MISCELLANEOUS\DEVELOPMENTRIG\CORAL\X64\DEBUG\VC120.IDB
E:\WPI\SEMESTER1\MISCELLANEOUS\DEVELOPMENTRIG\CORAL\X64\DEBUG\GROUPS.OBJ
^E:\WPI\SEMESTER1\MISCELLANEOUS\DEVELOPMENTRIG\CORAL\GROUPSCALE.CPP
E:\WPI\SEMESTER1\MISCELLANEOUS\DEVELOPMENTRIG\CORAL\X64\DEBUG\VC120.PDB
E:\WPI\SEMESTER1\MISCELLANEOUS\DEVELOPMENTRIG\CORAL\X64\DEBUG\VC120.IDB
E:\WPI\SEMESTER1\MISCELLANEOUS\DEVELOPMENTRIG\CORAL\X64\DEBUG\GROUPSCALE.OBJ
^E:\WPI\SEMESTER1\MISCELLANEOUS\DEVELOPMENTRIG\CORAL\MAIN.CPP
E:\WPI\SEMESTER1\MISCELLANEOUS\DEVELOPMENTRIG\CORAL\X64\DEBUG\VC120.PDB
E:\WPI\SEMESTER1\MISCELLANEOUS\DEVELOPMENTRIG\CORAL\X64\DEBUG\VC120.IDB
E:\WPI\SEMESTER1\MISCELLANEOUS\DEVELOPMENTRIG\CORAL\X64\DEBUG\MAIN.OBJ
^E:\WPI\SEMESTER1\MISCELLANEOUS\DEVELOPMENTRIG\CORAL\MUZAMMIL.CPP
E:\WPI\SEMESTER1\MISCELLANEOUS\DEVELOPMENTRIG\CORAL\X64\DEBUG\VC120.PDB
