^E:\WPI\SEMESTER1\MISCELLANEOUS\DEVELOPMENTRIG\CORAL\X64\DEBUG\GROUPS.OBJ|E:\WPI\SEMESTER1\MISCELLANEOUS\DEVELOPMENTRIG\CORAL\X64\DEBUG\GROUPSCALE.OBJ|E:\WPI\SEMESTER1\MISCELLANEOUS\DEVELOPMENTRIG\CORAL\X64\DEBUG\MAIN.OBJ|E:\WPI\SEMESTER1\MISCELLANEOUS\DEVELOPMENTRIG\CORAL\X64\DEBUG\MUZAMMIL.OBJ|E:\WPI\SEMESTER1\MISCELLANEOUS\DEVELOPMENTRIG\CORAL\X64\DEBUG\STDAFX.OBJ
E:\WPI\SEMESTER1\MISCELLANEOUS\DEVELOPMENTRIG\X64\DEBUG\CORAL.ILK
E:\WPI\SEMESTER1\MISCELLANEOUS\DEVELOPMENTRIG\X64\DEBUG\CORAL.EXE
E:\WPI\SEMESTER1\MISCELLANEOUS\DEVELOPMENTRIG\X64\DEBUG\CORAL.PDB
