^E:\WPI\SEMESTER1\MISCELLANEOUS\DEVELOPMENTRIG\CORAL\X64\RELEASE\GROUPS.OBJ|E:\WPI\SEMESTER1\MISCELLANEOUS\DEVELOPMENTRIG\CORAL\X64\RELEASE\MAIN.OBJ|E:\WPI\SEMESTER1\MISCELLANEOUS\DEVELOPMENTRIG\CORAL\X64\RELEASE\STDAFX.OBJ
E:\WPI\SEMESTER1\MISCELLANEOUS\DEVELOPMENTRIG\X64\RELEASE\CORAL.EXE
E:\WPI\SEMESTER1\MISCELLANEOUS\DEVELOPMENTRIG\X64\RELEASE\CORAL.PDB
